//		아이템 정보		//


*이름		"스케일 아머"
*Name		"Scale Armor"
*코드		"DA109"

///////////////	공통사항		 ////////////

*내구력		56 76
*무게		56
*가격		39000

///////////////	원소		/////////////

*생체		3 5
*불		3 5
*냉기		3 5
*번개		-1 -3
*독		3 5

///////////////	공격성능		/////////////
// 추가요인	최소	최대	

*공격력		
*사정거리		
*공격속도		
*명중력		
*크리티컬		

//////////////	방어성능		/////////////
// 추가요인

*흡수력		2.2 2.799
//*흡수력		4.8 5.399
*방어력		80 120
*블럭율		

//////////////	이동성능		/////////////
// 추가요인

*이동속도		

//////////////	저장공간		/////////////
// 소켓공간할당

*보유공간		

//////////////	특수능력		/////////////
// 추가요인

*생명력재생	
*기력재생
*근력재생
*생명력추가
*기력추가		
*근력추가
*마법기술숙련도	

//////////////	요구특성		/////////////
// 사용제한 요구치

*레벨		39
*힘		90
*정신력		
*재능		60
*민첩성		
*건강		

/////////////	회복약		 ////////////
// 추가요인	최소	최대

*생명력상승
*기력상승		
*근력상승

//////////////	캐릭터특성	/////////////

**특화랜덤 Mechanician Fighter Pikeman Archer Knight Atalanta
// Rogue Pilgrim//

**흡수력	0.3	0.599
**방어력	30	36

*연결파일        "name\da109.zhoon"