//		아이템 정보		//


*이름		"라이트닝 클러"
*Name		"Lightning Arm"
*코드		"WC105"

///////////////	공통사항		 ////////////

*내구력		34 48
*무게		19
*가격		6400

///////////////	원소		/////////////

*생체		
*대자연		
*불		
*냉기		
*번개		
*독		
*물		
*바람		

///////////////	공격성능		/////////////
// 추가요인	최소	최대	

*공격력		5 7	10 12
*사정거리		
*공격속도	6
*명중력		50 60
*크리티컬	6

//////////////	방어성능		/////////////
// 추가요인

*흡수력		
*방어력		12 17
*블럭율		

//////////////	신발성능		/////////////
// 추가요인

*이동속도		

//////////////	저장공간		/////////////
// 소켓공간할당

*보유공간		

//////////////	특수능력		/////////////
// 추가요인

*생명력재생	
*기력재생	
*근력재생	
*생명력추가	
*기력추가	
*근력추가	
*마법기술숙련도	

//////////////	요구특성		/////////////
// 사용제한 요구치

*레벨		16
*힘		44
*정신력		
*재능		34
*민첩성		34
*건강		

/////////////	회복약		 ////////////
// 추가요인	최소	최대

*생명력상승	
*기력상승	
*근력상승	

//////////////	캐릭터특성	/////////////
// 캐릭터별 특화성능

**특화 Mechanician
**특화랜덤 Atalanta
// Rogue Shaman//

**공격력		0	4
**크리티컬		5
**공격속도		2

*연결파일	"name\WC105.zhoon"